The forecaster’s toolbox: fable
…
Models in fable are specified using model functions, which each use
a formula (y ~ x) interface.

Train the model

fit <- gdppc |>
  model(trend_model = TSLM(GDP_per_capita ~ trend()))

## Warning: 7 errors (1 unique) encountered for trend_model
## [7] 0 (non-NA) cases

fit

## # A mable: 263 x 2
## # Key:     Country [263]
##    Country             trend_model
##    <fct>                   <model>
##  1 Afghanistan              <TSLM>
##  2 Albania                  <TSLM>
##  3 Algeria                  <TSLM>
##  4 American Samoa           <TSLM>
##  5 Andorra                  <TSLM>
##  6 Angola                   <TSLM>
##  7 Antigua and Barbuda      <TSLM>
##  8 Arab World               <TSLM>
##  9 Argentina                <TSLM>
## 10 Armenia                  <TSLM>
## # ℹ 253 more rows

evaluate the fit

4. Forecasts

fit |> forecast(h = "3 years")

## # A fable: 789 x 5 [1Y]
## # Key:     Country, .model [263]
##    Country        .model       Year
##    <fct>          <chr>       <dbl>
##  1 Afghanistan    trend_model  2018
##  2 Afghanistan    trend_model  2019
##  3 Afghanistan    trend_model  2020
##  4 Albania        trend_model  2018
##  5 Albania        trend_model  2019
##  6 Albania        trend_model  2020
##  7 Algeria        trend_model  2018
##  8 Algeria        trend_model  2019
##  9 Algeria        trend_model  2020
## 10 American Samoa trend_model  2018
## # ℹ 779 more rows
## # ℹ 2 more variables: GDP_per_capita <dist>, .mean <dbl>
…
